{
  "images" : [
    {
      "idiom" : "universal",
      "filename" : "if_icon-ios7-camera-outline_211705(2).png",
      "scale" : "1x"
    },
    {
      "idiom" : "universal",
      "filename" : "if_icon-ios7-camera-outline_211705.png",
      "scale" : "2x"
    },
    {
      "idiom" : "universal",
      "filename" : "if_icon-ios7-camera-outline_211705(1).png",
      "scale" : "3x"
    }
  ],
  "info" : {
    "version" : 1,
    "author" : "xcode"
  }
}